ComptoxR
…
Non-Targeted Analysis Compound Searching

To better assist in the hazard and risk management space, several functions are suggested for use.

Searching by mass range:

#Searching by mass range
    ct_search_mass(start = 413.9, end = 414) %>%
      select(dtxsid, preferredName, casrn, molFormula)

Non-Targeted Analysis Compound Searching

Searching for compound details....

# A tibble: 108 x 4
   dtxsid         preferredName                                 casrn molFormula
   <chr>          <chr>                                         <chr> <chr>     
 1 DTXSID00451957 1-Propanone, 2,3-dibromo-3-(3-chlorophenyl)-~ 6497~ C16H13Br2~
 2 DTXSID00507665 2,2,3,3,4,4,5,5,6,6,7,7-Dodecafluoroheptyl s~ 2547~ C7H3ClF12~
 3 DTXSID0058069  Phosdiphen                                    3651~ C14H11Cl4~
 4 DTXSID00825437 5-Hydroxy-4-oxo-3-[2-(1H-pyrazol-5-yl)hydraz~ 7174~ C13H10N4O~
 5 DTXSID00896581 Perfluoro-2,3,3-trimethylpentanoic acid       1882~ C8HF15O2  
 6 DTXSID00896586 Perfluoro-2-(propan-2-yl)pentanoic acid       1882~ C8HF15O2  
 7 DTXSID00896602 Perfluoro-2,2-dimethylhexanoic acid           1812~ C8HF15O2  
 8 DTXSID10294599 Dibutyl 2,3,5,6-tetrachlorobenzene-1,4-dicar~ 3823~ C16H18Cl4~
 9 DTXSID10471969 Diselenide, di-2-naphthalenyl                 1793~ C20H14Se2 
10 DTXSID10507257 1~2~,3~2~-Bis(bromomethyl)-1~1~,2~1~:2~4~,3~~ 5309~ C20H16Br2 
# i 98 more rows
…
# A tibble: 4 x 7
  dtxsid      preferredName casrn averageMass sourcesCount toxcastSelect qcLevel
  <chr>       <chr>         <chr>       <dbl>        <int> <chr>           <int>
1 DTXSID4020~ Malathion     121-~        330.          337 154/1125            1
2 DTXSID9058~ Isomalathion  3344~        330.           38 <NA>                1
3 DTXSID3010~ (1S,3S)-Isom~ 1412~        330.           10 <NA>                1
4 DTXSID4010~ (R)-Malathion 1413~        330.            8 <NA>                1

Searching for hazard records

df <- ct_hazard(query = 'DTXSID4020375')

Searching for hazard data....

# A tibble: 126 x 4
# Groups:   riskAssessmentClass, supercategory [36]
   riskAssessmentClass supercategory          toxvalUnits toxvalNumeric
   <chr>               <chr>                  <chr>               <dbl>
 1 acute               Exposure Limit         mg/m3             82.3   
 2 acute               Lethality Effect Level mg/kg-day         67.7   
 3 acute               Lethality Effect Level ml/kg            400     
 4 acute               Lethality Effect Level ug/L               1.76  
 5 acute               Lethality Effect Level ug/g              45.6   
 6 acute               Point of Departure     ug/kg-day        500     
 7 acute               Toxicity Value         ug/kg-day          0.5   
 8 acute development   Point of Departure     mg/L               0.0794
 9 acute development   Point of Departure     uM                41.5   
10 acute growth        Point of Departure     % w/v              0.1   
# i 116 more rows
…
Retrieve all compounds on a given list

Retrieve all public lists a compound is on

ct_lists_all() %>% select(name, type, label, longDescription)

Searching for presence on aggregate lists

Grabbing all public lists...
https://api-ccte.epa.gov/chemical/list/?projection=chemicallistall 

Search complete!

# A tibble: 437 x 4
   name           type    label                                  longDescription
   <chr>          <chr>   <chr>                                  <chr>          
 1 40CFR1164      federal "40 CFR 116.4 Designation of Hazardou~ "Hazardous Sub~
 2 40CFR355       federal "40CFR355 Extremely Hazardous Substan~ "Extremely Haz~
 3 AEGLVALUES     federal "AEGLS: Acute Exposure Guideline Leve~ "Acute Exposur~
 4 ANTIMICROBIALS federal "CATEGORY|WIKILIST|ANTIMICROBIALS: An~ "A list of ant~
 5 ASPECT         federal "EPA|ASPECT: EPA’s Airborne Spectral ~ "Based near Da~
 6 ATSDRLST       federal "ATSDR: Toxic Substances Portal Chemi~ "The Agency fo~
 7 ATSDRMRLS      federal "ATSDR: Minimal Risk Levels (MRLs) fo~ "The Comprehen~
 8 ATSDRPROFILES  federal "ATSDR Toxicological Profiles"         "Toxicological~
 9 BIOSOLIDS      federal "Navigation Panel to Biosolid Lists"   "Biosolids lis~
10 BIOSOLIDS2021  federal "LIST: Chemicals in biosolids (2021)"  "Biosolids are~
# i 427 more rows

ct_list('PRODWATER') %>%
  select(preferredName, casrn, smiles)

Searching for compounds on PRODWATER list ...

Search complete!
 1197 compounds found!

# A tibble: 1,197 x 3
   preferredName                                        casrn       smiles      
   <chr>                                                <chr>       <chr>       
 1 2,2,3,5,6-pentamethylhept-3-ene                      116164-06-8 "CC(C)C(C)C~
 2 Methylpropylcyclohexane                              26967-64-6  "C*.CCCC1CC~
 3 4-Hydroxy-N-2-propen-1-ylbenzamide                   90921-72-5  "OC1=CC=C(C~
 4 trans-1-Methyl-4-(1-methylethenyl)cyclohexane        1124-25-0   "C[C@H]1CC[~
 5 4a-Methyl-1,2,3,4,4a,5,6,7-octahydronaphthalene      13943-77-6  "CC12CCCCC1~
 6 2,3-Dimethyl-5-(2,6,10-trimethylundecyl)furan        166773-56-4 "CC(C)CCCC(~
 7 (3Z,5Z)-2-Methyldodeca-3,5-diene                     28980-74-7  "CCCCCC\\C=~
 8 rel-(1R,2R)-2-Ethyl-1,1'-bi(cyclohexyl)              50991-13-4  "[H][C@]1(C~
 9 N-(2,2,2-Trifluoroacetyl)glycine 1-methylethyl ester 56936-67-5  "CC(C)OC(=O~
10 6-Fluoro-1,2,4-triazine-3,5(2H,4H)-dione             82736-95-6  "FC1=NNC(=O~
# i 1,187 more rows
…
